mp223 Applied Econometric Methods for the Socials Sciences - Exploring numerical data
…
Important

Check the gallery https://r-graph-gallery.com/histogram.html;

Learn about histograms here: THE BOXPLOT AND ITS PITFALLS

Histogramus simplicius

un_dta 

# A tibble: 199 × 6
   region     group  fertility  ppgdp lifeExpF pctUrban
   <fct>      <fct>      <dbl>  <dbl>    <dbl>    <dbl>
 1 Asia       other       5.97   499      49.5       23
 2 Europe     other       1.52  3677.     80.4       53
 3 Africa     africa      2.14  4473      75         67
 4 Africa     africa      5.14  4322.     53.2       59
 5 Caribbean  other       2    13750.     81.1      100
 6 Latin Amer other       2.17  9162.     79.9       93
 7 Asia       other       1.74  3031.     77.3       64
 8 Caribbean  other       1.67 22852.     77.8       47
 9 Oceania    oecd        1.95 57119.     84.3       89
10 Europe     oecd        1.35 45159.     83.6       68
# … with 189 more rows
…
Bivariate data: Scatter plot

Scatter plot: basics

Important

Check the gallery https://r-graph-gallery.com/scatterplot.html;

Learn more about scatter plots here: https://www.data-to-viz.com/graph/scatter.html

Simple scatter plot

un_dta

# A tibble: 199 × 6
   region     group  fertility  ppgdp lifeExpF pctUrban
   <fct>      <fct>      <dbl>  <dbl>    <dbl>    <dbl>
 1 Asia       other       5.97   499      49.5       23
 2 Europe     other       1.52  3677.     80.4       53
 3 Africa     africa      2.14  4473      75         67
 4 Africa     africa      5.14  4322.     53.2       59
 5 Caribbean  other       2    13750.     81.1      100
 6 Latin Amer other       2.17  9162.     79.9       93
 7 Asia       other       1.74  3031.     77.3       64
 8 Caribbean  other       1.67 22852.     77.8       47
 9 Oceania    oecd        1.95 57119.     84.3       89
10 Europe     oecd        1.35 45159.     83.6       68
# … with 189 more rows
…
