mp223 Applied Econometric Methods for the Socials Sciences - Panel Regression Analysis
…
totlabor - total labor (excluding harvest labor)

To make analysis consistent with the theory, we would like to estimate a Cobb-Douglas Proudhon function, thus, all \(Y\) and \(X\) are converted in log.

Data glimpse

library(plm); library(splm)
data("RiceFarms", package = "splm")
rice_dta <- RiceFarms %>% as_tibble() %>% 
  select(id, time, goutput, size, seed, urea, totlabor) %>% 
  mutate(across(c(goutput, size, seed, urea, totlabor), ~ log(.)))
rice_dta_p <- rice_dta %>% pdata.frame(index = c("id", "time"))
rice_dta

# A tibble: 1,026 × 7
       id  time goutput   size  seed  urea totlabor
    <int> <dbl>   <dbl>  <dbl> <dbl> <dbl>    <dbl>
 1 101001     1    8.98  1.10   4.50  6.80     7.98
 2 101001     2    8.31  0.693  3.69  6.40     7.68
 3 101001     3    7.88  0      4.61  6.55     6.98
 4 101001     4    8.41  0.693  4.09  6.40     7.65
 5 101001     5    9.70  1.27   4.65  5.99     8.27
 6 101001     6    9.77  1.27   4.65  5.99     8.17
 7 101017     1    8.25  0.351  3.91  4.79     6.70
 8 101017     2    7.94  0.351  3.00  4.61     6.75
 9 101017     3    6.86 -0.849  2.71  5.01     6.13
10 101017     4    5.48 -1.54   1.95  3.91     4.69
# … with 1,016 more rows
…
